…
```
## Warning: NAs introducidos por coerción
```

```r
#Formatting Date to extract Season Info
Data$Date=as.Date(Data$Date,format='%d/%m/%Y')
Data$Season=as.numeric(format(Data$Date,"%Y"))

Data %>% 
  mutate(Winner = gsub(" $", "", Winner), Loser = gsub(" $", "", Loser))
```

```
## # A tibble: 46,652 × 55
##      ATP Location Tournam…¹ Date       Series Court Surface Round Best …² Winner
##    <dbl> <chr>    <chr>     <date>     <chr>  <chr> <chr>   <chr>   <dbl> <chr> 
##  1     1 Adelaide Australi… 2000-01-03 Inter… Outd… Hard    1st …       3 Dosed…
##  2     1 Adelaide Australi… 2000-01-03 Inter… Outd… Hard    1st …       3 Enqvi…
##  3     1 Adelaide Australi… 2000-01-03 Inter… Outd… Hard    1st …       3 Escud…
##  4     1 Adelaide Australi… 2000-01-03 Inter… Outd… Hard    1st …       3 Feder…
##  5     1 Adelaide Australi… 2000-01-03 Inter… Outd… Hard    1st …       3 Fromb…
##  6     1 Adelaide Australi… 2000-01-03 Inter… Outd… Hard    1st …       3 Gambi…
##  7     1 Adelaide Australi… 2000-01-03 Inter… Outd… Hard    1st …       3 Grosj…
##  8     1 Adelaide Australi… 2000-01-03 Inter… Outd… Hard    1st …       3 Henma…
##  9     1 Adelaide Australi… 2000-01-03 Inter… Outd… Hard    1st …       3 Hewit…
## 10     1 Adelaide Australi… 2000-01-03 Inter… Outd… Hard    1st …       3 Lisna…
## # … with 46,642 more rows, 45 more variables: Loser <chr>, WRank <dbl>,
## #   LRank <dbl>, W1 <dbl>, L1 <dbl>, W2 <dbl>, L2 <dbl>, W3 <dbl>, L3 <dbl>,
## #   W4 <dbl>, L4 <dbl>, W5 <dbl>, L5 <dbl>, Wsets <dbl>, Lsets <dbl>,
## #   Comment <chr>, CBW <dbl>, CBL <dbl>, GBW <dbl>, GBL <dbl>, IWW <dbl>,
## #   IWL <dbl>, SBW <dbl>, SBL <dbl>, B365W <dbl>, B365L <dbl>, `B&WW` <dbl>,
## #   `B&WL` <dbl>, EXW <dbl>, EXL <dbl>, PSW <dbl>, PSL <dbl>, WPts <dbl>,
## #   LPts <dbl>, UBW <dbl>, UBL <dbl>, LBW <dbl>, LBL <dbl>, SJW <dbl>, …
```
…
